<?xml version="1.0" encoding="iso-8859-1"?>
<!-- Generator: Adobe Illustrator 19.0.0, SVG Export Plug-In . SVG Version: 6.00 Build 0)  -->
<svg version="1.1" id="Capa_1" xmlns="http://www.w3.org/2000/svg" xmlns:xlink="http://www.w3.org/1999/xlink" x="0px" y="0px"
	 viewBox="0 0 512 512" style="enable-background:new 0 0 512 512;" xml:space="preserve">
<g>
	<g>
		<path fill="#FFF" d="M236.002,270.021H30.019c-16.541,0-29.997,13.457-29.997,29.997v127.989c0,16.541,13.457,29.997,29.997,29.997h71.234
			v33.997H87.287c-5.523,0-9.999,4.478-9.999,9.999S81.765,512,87.287,512h90.66c5.523,0,9.999-4.478,9.999-9.999
			s-4.477-9.999-9.999-9.999h-13.94v-33.997h71.994c16.541,0,29.997-13.457,29.997-29.997V300.018
			C265.999,283.478,252.542,270.021,236.002,270.021z M144.01,492.002h-22.758v-33.997h22.758V492.002z M246.001,428.007
			c0,5.514-4.486,9.999-9.999,9.999H30.019c-5.513,0-9.999-4.486-9.999-9.999v-25.998h159.986c5.523,0,9.999-4.478,9.999-9.999
			s-4.477-9.999-9.999-9.999H20.02v-81.993c0-5.513,4.486-9.999,9.999-9.999h205.982c5.514,0,9.999,4.486,9.999,9.999V428.007z"/>
	</g>
</g>
<g>
	<g>
		<path fill="#FFF" d="M223.433,384.941c-1.86-1.861-4.43-2.93-7.069-2.93c-2.63,0-5.2,1.069-7.069,2.93c-1.86,1.86-2.92,4.44-2.92,7.069
			s1.06,5.21,2.92,7.068c1.87,1.86,4.45,2.931,7.069,2.931c2.64,0,5.21-1.07,7.069-2.931c1.87-1.859,2.94-4.439,2.94-7.068
			S225.303,386.801,223.433,384.941z"/>
	</g>
</g>
<g>
	<g>
		<path fill="#FFF" d="M481.981,0H275.998c-16.541,0-29.997,13.457-29.997,29.997v127.989c0,16.541,13.457,29.997,29.997,29.997h71.234v33.997
			h-13.573c-5.523,0-9.999,4.478-9.999,9.999c0,5.522,4.477,9.999,9.999,9.999h90.66c5.523,0,9.999-4.478,9.999-9.999
			c0-5.521-4.477-9.999-9.999-9.999h-14.333v-33.997h71.994c16.541,0,29.997-13.457,29.997-29.997V29.997
			C511.978,13.457,498.521,0,481.981,0z M389.988,221.981H367.23v-33.997h22.758V221.981z M491.98,157.986
			c0,5.513-4.486,9.999-9.999,9.999H275.998c-5.514,0-9.999-4.486-9.999-9.999v-25.998h159.986c5.523,0,9.999-4.478,9.999-9.999
			s-4.477-9.999-9.999-9.999H265.999V29.997c0-5.514,4.486-9.999,9.999-9.999h205.982c5.513,0,9.999,4.486,9.999,9.999V157.986z"/>
	</g>
</g>
<g>
	<g>
		<path fill="#FFF" d="M469.422,114.924c-1.87-1.871-4.44-2.93-7.079-2.93c-2.63,0-5.2,1.06-7.069,2.93c-1.86,1.86-2.93,4.43-2.93,7.069
			c0,2.63,1.07,5.2,2.93,7.069c1.87,1.859,4.44,2.93,7.069,2.93c2.63,0,5.21-1.07,7.079-2.93c1.86-1.86,2.92-4.44,2.92-7.069
			C472.341,119.353,471.281,116.784,469.422,114.924z"/>
	</g>
</g>
<g>
	<g>
		<path fill="#FFF" d="M224.999,111.99h-59.874c-4.281-13.882-17.228-23.998-32.494-23.998c-18.746,0-33.997,15.251-33.997,33.997
			c0,15.268,10.116,28.215,23.998,32.494v89.495c0,5.522,4.477,9.999,9.999,9.999s9.999-4.478,9.999-9.999v-89.495
			c10.718-3.305,19.19-11.777,22.495-22.495h59.874c5.523,0,9.999-4.478,9.999-9.999C234.998,116.468,230.521,111.99,224.999,111.99
			z M132.631,135.988c-7.719,0-13.999-6.279-13.999-13.999c0-7.719,6.279-13.999,13.999-13.999c7.719,0,13.999,6.279,13.999,13.999
			C146.629,129.709,140.35,135.988,132.631,135.988z"/>
	</g>
</g>
<g>
	<g>
		<path fill="#FFF" d="M388.364,359.516v-89.495c0-5.522-4.477-9.999-9.999-9.999c-5.523,0-9.999,4.478-9.999,9.999v89.495
			c-10.718,3.305-19.19,11.777-22.495,22.495h-59.873c-5.523,0-9.999,4.478-9.999,9.999s4.477,9.999,9.999,9.999h59.873
			c4.281,13.882,17.228,23.998,32.494,23.998c18.746,0,33.997-15.251,33.997-33.997
			C412.362,376.743,402.245,363.796,388.364,359.516z M378.365,406.009c-7.719,0-13.999-6.279-13.999-13.999
			s6.279-13.999,13.999-13.999c7.719,0,13.999,6.279,13.999,13.999S386.084,406.009,378.365,406.009z"/>
	</g>
</g>
<g>
</g>
<g>
</g>
<g>
</g>
<g>
</g>
<g>
</g>
<g>
</g>
<g>
</g>
<g>
</g>
<g>
</g>
<g>
</g>
<g>
</g>
<g>
</g>
<g>
</g>
<g>
</g>
<g>
</g>
</svg>
